verilog.vcd
$date
    Jul  9, 2016  19:38:31
$end
$version
    TOOL:	ncsim	14.10-p001
$end
$timescale
    10 ps
$end

$scope module tb_arbiter $end
$var reg      16 !    req [15:0] $end
$var reg      16 "    i [15:0] $end
$var reg      16 #    gnt [15:0] $end
$var reg       1 $    clk  $end
$var reg       1 %    rst  $end

$scope module arb $end
$var wire      1 &    clk  $end
$var wire      1 '    rst  $end
$var wire     16 (    req [15:0] $end
$var wire     16 )    gnt [15:0] $end
$var reg      16 *    gnt_d [15:0] $end
$var reg      16 +    gnt_nxt [15:0] $end
$var reg       4 ,    RR_0 [3:0] $end
$var reg       4 -    RR_1 [3:0] $end
$var reg       4 .    RR_2 [3:0] $end
$var reg       4 /    RR_3 [3:0] $end
$var reg       4 0    RR_4 [3:0] $end
$var reg       4 1    RR_5 [3:0] $end
$var reg       4 2    RR_6 [3:0] $end
$var reg       4 3    RR_7 [3:0] $end
$var reg       4 4    RR_8 [3:0] $end
$var reg       4 5    RR_9 [3:0] $end
$var reg       4 6    RR_10 [3:0] $end
$var reg       4 7    RR_11 [3:0] $end
$var reg       4 8    RR_12 [3:0] $end
$var reg       4 9    RR_13 [3:0] $end
$var reg       4 :    RR_14 [3:0] $end
$var reg       4 ;    RR_15 [3:0] $end
$var reg       4 <    gnt_won [3:0] $end
$var reg       4 =    gnt_last [3:0] $end
$upscope $end

$upscope $end

$enddefinitions $end
$dumpvars
b0 !
b1 "
bx #
0$
0%
0&
0'
b0 (
bx )
bx *
b0 +
bx ,
bx -
bx .
bx /
bx 0
bx 1
bx 2
bx 3
bx 4
bx 5
bx 6
bx 7
bx 8
bx 9
bx :
bx ;
b0 <
bx =
$end
#500
1$
1%
1'
1&
b0 ,
b1 -
b10 .
b11 /
b100 0
b101 1
b110 2
b111 3
b1000 4
b1001 5
b1010 6
b1011 7
b1100 8
b1101 9
b1110 :
b1111 ;
b0 *
b0 =
b0 )
b0 #
#1000
0$
0&
#1500
1$
1&
#2000
0$
0&
#2500
1$
1&
#3000
0$
0&
#3500
1$
1&
#4000
0$
0&
#4500
1$
1&
#5000
0$
0&
#5500
1$
1&
#6000
0$
0&
#6500
1$
1&
#7000
0$
0&
#7500
1$
1&
#8000
0$
0&
#8500
1$
1&
#9000
0$
0&
#9500
1$
1&
#10000
0$
0&
#10500
1$
1&
#10900
0%
0'
#11000
0$
0&
#11500
1$
1&
#12000
0$
0&
#12500
1$
1&
#13000
0$
0&
#13500
1$
1&
#14000
0$
0&
#14500
1$
1&
#15000
0$
0&
#15500
1$
1&
#16000
0$
0&
#16500
1$
1&
#17000
0$
0&
#17500
1$
1&
#18000
0$
0&
#18500
1$
1&
#19000
0$
0&
#19500
1$
1&
#20000
0$
0&
#20500
1$
1&
#21000
0$
b10 "
b11 "
b10 !
b10 (
0&
b10 +
b1 <
#21500
1$
1&
b0 +
b0 <
b10 +
b1 <
b10 ,
b11 -
b100 .
b101 /
b110 0
b111 1
b1000 2
b1001 3
b1010 4
b1011 5
b1100 6
b1101 7
b1110 8
b1111 9
b0 :
b1 ;
#21600
b10 *
b10 =
b10 )
b10 #
#22000
0$
b110 "
b111 "
b110 !
b110 (
0&
b0 +
b0 <
b100 +
b10 <
#22500
1$
1&
b0 +
b0 <
b10 +
b1 <
b11 ,
b100 -
b101 .
b110 /
b111 0
b1000 1
b1001 2
b1010 3
b1011 4
b1100 5
b1101 6
b1110 7
b1111 8
b0 9
b1 :
b10 ;
#22600
b100 *
b100 =
b100 )
b100 #
#23000
0$
b1110 "
b1111 "
b1110 !
b1110 (
0&
b0 +
b0 <
b1000 +
b11 <
#23500
1$
1&
b0 +
b0 <
b10 +
b1 <
b101 ,
b110 -
b111 .
b1000 /
b1001 0
b1010 1
b1011 2
b1100 3
b1101 4
b1110 5
b1111 6
b0 7
b1 8
b10 9
b11 :
b100 ;
#23600
b1000 *
b1000 =
b1000 )
b1000 #
#24000
0$
b11110 "
b11111 "
b11110 !
b11110 (
0&
b0 +
b0 <
b10 +
b1 <
#24500
1$
1&
b0 +
b0 <
b100 +
b10 <
b10 ,
b11 -
b100 .
b101 /
b110 0
b111 1
b1000 2
b1001 3
b1010 4
b1011 5
b1100 6
b1101 7
b1110 8
b1111 9
b0 :
b1 ;
#24600
b10 *
b10 =
b10 )
b10 #
#25000
0$
b111110 "
b111111 "
b111110 !
b111110 (
0&
b0 +
b0 <
b100 +
b10 <
#25500
1$
1&
b0 +
b0 <
b1000 +
b11 <
b11 ,
b100 -
b101 .
b110 /
b111 0
b1000 1
b1001 2
b1010 3
b1011 4
b1100 5
b1101 6
b1110 7
b1111 8
b0 9
b1 :
b10 ;
#25600
b100 *
b100 =
b100 )
b100 #
#26000
0$
b1111110 "
b1111111 "
b1111110 !
b1111110 (
0&
b0 +
b0 <
b1000 +
b11 <
#26500
1$
1&
b0 +
b0 <
b100000 +
b101 <
b101 ,
b110 -
b111 .
b1000 /
b1001 0
b1010 1
b1011 2
b1100 3
b1101 4
b1110 5
b1111 6
b0 7
b1 8
b10 9
b11 :
b100 ;
#26600
b1000 *
b1000 =
b1000 )
b1000 #
#27000
0$
b11111110 "
b11111111 "
b11111110 !
b11111110 (
0&
b0 +
b0 <
b100000 +
b101 <
#27500
1$
1&
b0 +
b0 <
b10000000 +
b111 <
b111 ,
b1000 -
b1001 .
b1010 /
b1011 0
b1100 1
b1101 2
b1110 3
b1111 4
b0 5
b1 6
b10 7
b11 8
b100 9
b101 :
b110 ;
#27600
b100000 *
b0 =
b100000 )
b100000 #
#28000
0$
b111111110 "
b111111111 "
b111111110 !
b111111110 (
0&
b0 +
b0 <
b10000000 +
b111 <
#28500
1$
1&
b0 +
b0 <
b10 +
b1 <
b1001 ,
b1010 -
b1011 .
b1100 /
b1101 0
b1110 1
b1111 2
b0 3
b1 4
b10 5
b11 6
b100 7
b101 8
b110 9
b111 :
b1000 ;
#28600
b10000000 *
b10000000 )
b10000000 #
#29000
0$
b1111111110 "
b1111111111 "
b1111111110 !
b1111111110 (
0&
b0 +
b0 <
b1000000000 +
b1001 <
#29500
1$
1&
b0 +
b0 <
b10 +
b1 <
b1011 ,
b1100 -
b1101 .
b1110 /
b1111 0
b0 1
b1 2
b10 3
b11 4
b100 5
b101 6
b110 7
b111 8
b1000 9
b1001 :
b1010 ;
#29600
b1000000000 *
b1000000000 )
b1000000000 #
#30000
0$
b11111111110 "
b11111111111 "
b11111111110 !
b11111111110 (
0&
b0 +
b0 <
b10 +
b1 <
#30500
1$
1&
b0 +
b0 <
b100 +
b10 <
b10 ,
b11 -
b100 .
b101 /
b110 0
b111 1
b1000 2
b1001 3
b1010 4
b1011 5
b1100 6
b1101 7
b1110 8
b1111 9
b0 :
b1 ;
#30600
b10 *
b10 =
b10 )
b10 #
#31000
0$
b111111111110 "
b111111111111 "
b111111111110 !
b111111111110 (
0&
b0 +
b0 <
b100 +
b10 <
#31500
1$
1&
b0 +
b0 <
b1000 +
b11 <
b11 ,
b100 -
b101 .
b110 /
b111 0
b1000 1
b1001 2
b1010 3
b1011 4
b1100 5
b1101 6
b1110 7
b1111 8
b0 9
b1 :
b10 ;
#31600
b100 *
b100 =
b100 )
b100 #
#32000
0$
b1111111111110 "
b1111111111111 "
b1111111111110 !
b1111111111110 (
0&
b0 +
b0 <
b1000 +
b11 <
#32500
1$
1&
b0 +
b0 <
b100000 +
b101 <
b101 ,
b110 -
b111 .
b1000 /
b1001 0
b1010 1
b1011 2
b1100 3
b1101 4
b1110 5
b1111 6
b0 7
b1 8
b10 9
b11 :
b100 ;
#32600
b1000 *
b1000 =
b1000 )
b1000 #
#33000
0$
b11111111111110 "
b11111111111111 "
b11111111111110 !
b11111111111110 (
0&
b0 +
b0 <
b100000 +
b101 <
#33500
1$
1&
b0 +
b0 <
b10000000 +
b111 <
b111 ,
b1000 -
b1001 .
b1010 /
b1011 0
b1100 1
b1101 2
b1110 3
b1111 4
b0 5
b1 6
b10 7
b11 8
b100 9
b101 :
b110 ;
#33600
b100000 *
b0 =
b100000 )
b100000 #
#34000
0$
b111111111111110 "
b111111111111111 "
b111111111111110 !
b111111111111110 (
0&
b0 +
b0 <
b10000000 +
b111 <
#34500
1$
1&
b0 +
b0 <
b1000000000 +
b1001 <
b1001 ,
b1010 -
b1011 .
b1100 /
b1101 0
b1110 1
b1111 2
b0 3
b1 4
b10 5
b11 6
b100 7
b101 8
b110 9
b111 :
b1000 ;
#34600
b10000000 *
b10000000 )
b10000000 #
#35000
0$
b1111111111111110 "
b1111111111111111 "
b1111111111111110 !
b1111111111111110 (
0&
b0 +
b0 <
b1000000000 +
b1001 <
#35500
1$
1&
b0 +
b0 <
b100000000000 +
b1011 <
b1011 ,
b1100 -
b1101 .
b1110 /
b1111 0
b0 1
b1 2
b10 3
b11 4
b100 5
b101 6
b110 7
b111 8
b1000 9
b1001 :
b1010 ;
#35600
b1000000000 *
b1000000000 )
b1000000000 #
#36000
0$
b0 "
b1111111111111111 !
b1111111111111111 (
0&
b0 +
b0 <
b100000000000 +
b1011 <
#36500
1$
1&
b0 +
b0 <
b10000000000000 +
b1101 <
b1101 ,
b1110 -
b1111 .
b0 /
b1 0
b10 1
b11 2
b100 3
b101 4
b110 5
b111 6
b1000 7
b1001 8
b1010 9
b1011 :
b1100 ;
#36600
b100000000000 *
b100000000000 )
b100000000000 #
#37000
0$
b1 "
b0 !
b0 (
0&
b0 +
b0 <
#37500
1$
1&
#37600
b0 *
b0 )
b0 #
#38000
0$
b10 "
b11 "
b10 !
b10 (
0&
b10 +
b1 <
#38500
1$
1&
b0 +
b0 <
b10 +
b1 <
b10 ,
b11 -
b100 .
b101 /
b110 0
b111 1
b1000 2
b1001 3
b1010 4
b1011 5
b1100 6
b1101 7
b1110 8
b1111 9
b0 :
b1 ;
#38600
b10 *
b10 =
b10 )
b10 #
#39000
0$
b110 "
b111 "
b110 !
b110 (
0&
b0 +
b0 <
b100 +
b10 <
#39500
1$
1&
b0 +
b0 <
b10 +
b1 <
b11 ,
b100 -
b101 .
b110 /
b111 0
b1000 1
b1001 2
b1010 3
b1011 4
b1100 5
b1101 6
b1110 7
b1111 8
b0 9
b1 :
b10 ;
#39600
b100 *
b100 =
b100 )
b100 #
#40000
0$
b1110 "
b1111 "
b1110 !
b1110 (
0&
b0 +
b0 <
b1000 +
b11 <
#40500
1$
1&
b0 +
b0 <
b10 +
b1 <
b101 ,
b110 -
b111 .
b1000 /
b1001 0
b1010 1
b1011 2
b1100 3
b1101 4
b1110 5
b1111 6
b0 7
b1 8
b10 9
b11 :
b100 ;
#40600
b1000 *
b1000 =
b1000 )
b1000 #
#41000
0$
b11110 "
b11111 "
b11110 !
b11110 (
0&
b0 +
b0 <
b10 +
b1 <
#41500
1$
1&
b0 +
b0 <
b100 +
b10 <
b10 ,
b11 -
b100 .
b101 /
b110 0
b111 1
b1000 2
b1001 3
b1010 4
b1011 5
b1100 6
b1101 7
b1110 8
b1111 9
b0 :
b1 ;
#41600
b10 *
b10 =
b10 )
b10 #
#42000
0$
b111110 "
b111111 "
b111110 !
b111110 (
0&
b0 +
b0 <
b100 +
b10 <
#42500
1$
1&
b0 +
b0 <
b1000 +
b11 <
b11 ,
b100 -
b101 .
b110 /
b111 0
b1000 1
b1001 2
b1010 3
b1011 4
b1100 5
b1101 6
b1110 7
b1111 8
b0 9
b1 :
b10 ;
#42600
b100 *
b100 =
b100 )
b100 #
#43000
0$
b1111110 "
b1111111 "
b1111110 !
b1111110 (
0&
b0 +
b0 <
b1000 +
b11 <
#43500
1$
1&
b0 +
b0 <
b100000 +
b101 <
b101 ,
b110 -
b111 .
b1000 /
b1001 0
b1010 1
b1011 2
b1100 3
b1101 4
b1110 5
b1111 6
b0 7
b1 8
b10 9
b11 :
b100 ;
#43600
b1000 *
b1000 =
b1000 )
b1000 #
#44000
0$
b11111110 "
b11111111 "
b11111110 !
b11111110 (
0&
b0 +
b0 <
b100000 +
b101 <
#44500
1$
1&
b0 +
b0 <
b10000000 +
b111 <
b111 ,
b1000 -
b1001 .
b1010 /
b1011 0
b1100 1
b1101 2
b1110 3
b1111 4
b0 5
b1 6
b10 7
b11 8
b100 9
b101 :
b110 ;
#44600
b100000 *
b0 =
b100000 )
b100000 #
#45000
0$
b111111110 "
b111111111 "
b111111110 !
b111111110 (
0&
b0 +
b0 <
b10000000 +
b111 <
#45500
1$
1&
b0 +
b0 <
b10 +
b1 <
b1001 ,
b1010 -
b1011 .
b1100 /
b1101 0
b1110 1
b1111 2
b0 3
b1 4
b10 5
b11 6
b100 7
b101 8
b110 9
b111 :
b1000 ;
#45600
b10000000 *
b10000000 )
b10000000 #
#46000
0$
b1111111110 "
b1111111111 "
b1111111110 !
b1111111110 (
0&
b0 +
b0 <
b1000000000 +
b1001 <
#46500
1$
1&
b0 +
b0 <
b10 +
b1 <
b1011 ,
b1100 -
b1101 .
b1110 /
b1111 0
b0 1
b1 2
b10 3
b11 4
b100 5
b101 6
b110 7
b111 8
b1000 9
b1001 :
b1010 ;
#46600
b1000000000 *
b1000000000 )
b1000000000 #
#47000
0$
b11111111110 "
b11111111111 "
b11111111110 !
b11111111110 (
0&
b0 +
b0 <
b10 +
b1 <
#47500
1$
1&
b0 +
b0 <
b100 +
b10 <
b10 ,
b11 -
b100 .
b101 /
b110 0
b111 1
b1000 2
b1001 3
b1010 4
b1011 5
b1100 6
b1101 7
b1110 8
b1111 9
b0 :
b1 ;
#47600
b10 *
b10 =
b10 )
b10 #
#48000
0$
b111111111110 "
b111111111111 "
b111111111110 !
b111111111110 (
0&
b0 +
b0 <
b100 +
b10 <
#48500
1$
1&
b0 +
b0 <
b1000 +
b11 <
b11 ,
b100 -
b101 .
b110 /
b111 0
b1000 1
b1001 2
b1010 3
b1011 4
b1100 5
b1101 6
b1110 7
b1111 8
b0 9
b1 :
b10 ;
#48600
b100 *
b100 =
b100 )
b100 #
#49000
0$
b1111111111110 "
b1111111111111 "
b1111111111110 !
b1111111111110 (
0&
b0 +
b0 <
b1000 +
b11 <
#49500
1$
1&
b0 +
b0 <
b100000 +
b101 <
b101 ,
b110 -
b111 .
b1000 /
b1001 0
b1010 1
b1011 2
b1100 3
b1101 4
b1110 5
b1111 6
b0 7
b1 8
b10 9
b11 :
b100 ;
#49600
b1000 *
b1000 =
b1000 )
b1000 #
#50000
0$
b11111111111110 "
b11111111111111 "
b11111111111110 !
b11111111111110 (
0&
b0 +
b0 <
b100000 +
b101 <
#50500
1$
1&
b0 +
b0 <
b10000000 +
b111 <
b111 ,
b1000 -
b1001 .
b1010 /
b1011 0
b1100 1
b1101 2
b1110 3
b1111 4
b0 5
b1 6
b10 7
b11 8
b100 9
b101 :
b110 ;
#50600
b100000 *
b0 =
b100000 )
b100000 #
#51000
0$
b111111111111110 "
b111111111111111 "
b111111111111110 !
b111111111111110 (
0&
b0 +
b0 <
b10000000 +
b111 <
#51500
1$
1&
b0 +
b0 <
b1000000000 +
b1001 <
b1001 ,
b1010 -
b1011 .
b1100 /
b1101 0
b1110 1
b1111 2
b0 3
b1 4
b10 5
b11 6
b100 7
b101 8
b110 9
b111 :
b1000 ;
#51600
b10000000 *
b10000000 )
b10000000 #
#52000
0$
b1111111111111110 "
b1111111111111111 "
b1111111111111110 !
b1111111111111110 (
0&
b0 +
b0 <
b1000000000 +
b1001 <
#52500
1$
1&
b0 +
b0 <
b100000000000 +
b1011 <
b1011 ,
b1100 -
b1101 .
b1110 /
b1111 0
b0 1
b1 2
b10 3
b11 4
b100 5
b101 6
b110 7
b111 8
b1000 9
b1001 :
b1010 ;
#52600
b1000000000 *
b1000000000 )
b1000000000 #
#53000
0$
b0 "
b1111111111111111 !
b1111111111111111 (
0&
b0 +
b0 <
b100000000000 +
b1011 <
#53500
1$
1&
b0 +
b0 <
b10000000000000 +
b1101 <
b1101 ,
b1110 -
b1111 .
b0 /
b1 0
b10 1
b11 2
b100 3
b101 4
b110 5
b111 6
b1000 7
b1001 8
b1010 9
b1011 :
b1100 ;
#53600
b100000000000 *
b100000000000 )
b100000000000 #
#54000
0$
b1 "
b0 !
b0 (
0&
b0 +
b0 <
#54500
1$
1&
#54600
b0 *
b0 )
b0 #
#55000
0$
b10 "
b11 "
b10 !
b10 (
0&
b10 +
b1 <
#55500
1$
1&
b0 +
b0 <
b10 +
b1 <
b10 ,
b11 -
b100 .
b101 /
b110 0
b111 1
b1000 2
b1001 3
b1010 4
b1011 5
b1100 6
b1101 7
b1110 8
b1111 9
b0 :
b1 ;
#55600
b10 *
b10 =
b10 )
b10 #
#56000
0$
b110 "
b111 "
b110 !
b110 (
0&
b0 +
b0 <
b100 +
b10 <
#56500
1$
1&
b0 +
b0 <
b10 +
b1 <
b11 ,
b100 -
b101 .
b110 /
b111 0
b1000 1
b1001 2
b1010 3
b1011 4
b1100 5
b1101 6
b1110 7
b1111 8
b0 9
b1 :
b10 ;
#56600
b100 *
b100 =
b100 )
b100 #
#57000
0$
b1110 "
b1111 "
b1110 !
b1110 (
0&
b0 +
b0 <
b1000 +
b11 <
#57500
1$
1&
b0 +
b0 <
b10 +
b1 <
b101 ,
b110 -
b111 .
b1000 /
b1001 0
b1010 1
b1011 2
b1100 3
b1101 4
b1110 5
b1111 6
b0 7
b1 8
b10 9
b11 :
b100 ;
#57600
b1000 *
b1000 =
b1000 )
b1000 #
#58000
0$
b11110 "
b11111 "
b11110 !
b11110 (
0&
b0 +
b0 <
b10 +
b1 <
#58500
1$
1&
b0 +
b0 <
b100 +
b10 <
b10 ,
b11 -
b100 .
b101 /
b110 0
b111 1
b1000 2
b1001 3
b1010 4
b1011 5
b1100 6
b1101 7
b1110 8
b1111 9
b0 :
b1 ;
#58600
b10 *
b10 =
b10 )
b10 #
#59000
0$
b111110 "
b111111 "
b111110 !
b111110 (
0&
b0 +
b0 <
b100 +
b10 <
#59500
1$
1&
b0 +
b0 <
b1000 +
b11 <
b11 ,
b100 -
b101 .
b110 /
b111 0
b1000 1
b1001 2
b1010 3
b1011 4
b1100 5
b1101 6
b1110 7
b1111 8
b0 9
b1 :
b10 ;
#59600
b100 *
b100 =
b100 )
b100 #
#60000
0$
b1111110 "
b1111111 "
b1111110 !
b1111110 (
0&
b0 +
b0 <
b1000 +
b11 <
#60500
1$
1&
b0 +
b0 <
b100000 +
b101 <
b101 ,
b110 -
b111 .
b1000 /
b1001 0
b1010 1
b1011 2
b1100 3
b1101 4
b1110 5
b1111 6
b0 7
b1 8
b10 9
b11 :
b100 ;
#60600
b1000 *
b1000 =
b1000 )
b1000 #
#61000
0$
b11111110 "
b11111111 "
b11111110 !
b11111110 (
0&
b0 +
b0 <
b100000 +
b101 <
#61500
1$
1&
b0 +
b0 <
b10000000 +
b111 <
b111 ,
b1000 -
b1001 .
b1010 /
b1011 0
b1100 1
b1101 2
b1110 3
b1111 4
b0 5
b1 6
b10 7
b11 8
b100 9
b101 :
b110 ;
#61600
b100000 *
b0 =
b100000 )
b100000 #
#62000
0$
b111111110 "
b111111111 "
b111111110 !
b111111110 (
0&
b0 +
b0 <
b10000000 +
b111 <
#62500
1$
1&
b0 +
b0 <
b10 +
b1 <
b1001 ,
b1010 -
b1011 .
b1100 /
b1101 0
b1110 1
b1111 2
b0 3
b1 4
b10 5
b11 6
b100 7
b101 8
b110 9
b111 :
b1000 ;
#62600
b10000000 *
b10000000 )
b10000000 #
#63000
0$
b1111111110 "
b1111111111 "
b1111111110 !
b1111111110 (
0&
b0 +
b0 <
b1000000000 +
b1001 <
#63500
1$
1&
b0 +
b0 <
b10 +
b1 <
b1011 ,
b1100 -
b1101 .
b1110 /
b1111 0
b0 1
b1 2
b10 3
b11 4
b100 5
b101 6
b110 7
b111 8
b1000 9
b1001 :
b1010 ;
#63600
b1000000000 *
b1000000000 )
b1000000000 #
#64000
0$
b11111111110 "
b11111111111 "
b11111111110 !
b11111111110 (
0&
b0 +
b0 <
b10 +
b1 <
#64500
1$
1&
b0 +
b0 <
b100 +
b10 <
b10 ,
b11 -
b100 .
b101 /
b110 0
b111 1
b1000 2
b1001 3
b1010 4
b1011 5
b1100 6
b1101 7
b1110 8
b1111 9
b0 :
b1 ;
#64600
b10 *
b10 =
b10 )
b10 #
#65000
0$
b111111111110 "
b111111111111 "
b111111111110 !
b111111111110 (
0&
b0 +
b0 <
b100 +
b10 <
#65500
1$
1&
b0 +
b0 <
b1000 +
b11 <
b11 ,
b100 -
b101 .
b110 /
b111 0
b1000 1
b1001 2
b1010 3
b1011 4
b1100 5
b1101 6
b1110 7
b1111 8
b0 9
b1 :
b10 ;
#65600
b100 *
b100 =
b100 )
b100 #
#66000
0$
b1111111111110 "
b1111111111111 "
b1111111111110 !
b1111111111110 (
0&
b0 +
b0 <
b1000 +
b11 <
#66500
1$
1&
b0 +
b0 <
b100000 +
b101 <
b101 ,
b110 -
b111 .
b1000 /
b1001 0
b1010 1
b1011 2
b1100 3
b1101 4
b1110 5
b1111 6
b0 7
b1 8
b10 9
b11 :
b100 ;
#66600
b1000 *
b1000 =
b1000 )
b1000 #
#67000
0$
b11111111111110 "
b11111111111111 "
b11111111111110 !
b11111111111110 (
0&
b0 +
b0 <
b100000 +
b101 <
#67500
1$
1&
b0 +
b0 <
b10000000 +
b111 <
b111 ,
b1000 -
b1001 .
b1010 /
b1011 0
b1100 1
b1101 2
b1110 3
b1111 4
b0 5
b1 6
b10 7
b11 8
b100 9
b101 :
b110 ;
#67600
b100000 *
b0 =
b100000 )
b100000 #
#68000
0$
b111111111111110 "
b111111111111111 "
b111111111111110 !
b111111111111110 (
0&
b0 +
b0 <
b10000000 +
b111 <
#68500
1$
1&
b0 +
b0 <
b1000000000 +
b1001 <
b1001 ,
b1010 -
b1011 .
b1100 /
b1101 0
b1110 1
b1111 2
b0 3
b1 4
b10 5
b11 6
b100 7
b101 8
b110 9
b111 :
b1000 ;
#68600
b10000000 *
b10000000 )
b10000000 #
#69000
0$
b1111111111111110 "
b1111111111111111 "
b1111111111111110 !
b1111111111111110 (
0&
b0 +
b0 <
b1000000000 +
b1001 <
#69500
1$
1&
b0 +
b0 <
b100000000000 +
b1011 <
b1011 ,
b1100 -
b1101 .
b1110 /
b1111 0
b0 1
b1 2
b10 3
b11 4
b100 5
b101 6
b110 7
b111 8
b1000 9
b1001 :
b1010 ;
#69600
b1000000000 *
b1000000000 )
b1000000000 #
#70000
0$
b0 "
b1111111111111111 !
b1111111111111111 (
0&
b0 +
b0 <
b100000000000 +
b1011 <
#70500
1$
1&
b0 +
b0 <
b10000000000000 +
b1101 <
b1101 ,
b1110 -
b1111 .
b0 /
b1 0
b10 1
b11 2
b100 3
b101 4
b110 5
b111 6
b1000 7
b1001 8
b1010 9
b1011 :
b1100 ;
#70600
b100000000000 *
b100000000000 )
b100000000000 #
#71000
0$
b1 "
b0 !
b0 (
0&
b0 +
b0 <
#71500
1$
1&
#71600
b0 *
b0 )
b0 #
#72000
0$
b10 "
b11 "
b10 !
b10 (
0&
b10 +
b1 <
#72500
1$
1&
b0 +
b0 <
b10 +
b1 <
b10 ,
b11 -
b100 .
b101 /
b110 0
b111 1
b1000 2
b1001 3
b1010 4
b1011 5
b1100 6
b1101 7
b1110 8
b1111 9
b0 :
b1 ;
#72600
b10 *
b10 =
b10 )
b10 #
#73000
0$
b110 "
b111 "
b110 !
b110 (
0&
b0 +
b0 <
b100 +
b10 <
#73500
1$
1&
b0 +
b0 <
b10 +
b1 <
b11 ,
b100 -
b101 .
b110 /
b111 0
b1000 1
b1001 2
b1010 3
b1011 4
b1100 5
b1101 6
b1110 7
b1111 8
b0 9
b1 :
b10 ;
#73600
b100 *
b100 =
b100 )
b100 #
#74000
0$
b1110 "
b1111 "
b1110 !
b1110 (
0&
b0 +
b0 <
b1000 +
b11 <
#74500
1$
1&
b0 +
b0 <
b10 +
b1 <
b101 ,
b110 -
b111 .
b1000 /
b1001 0
b1010 1
b1011 2
b1100 3
b1101 4
b1110 5
b1111 6
b0 7
b1 8
b10 9
b11 :
b100 ;
#74600
b1000 *
b1000 =
b1000 )
b1000 #
#75000
0$
b11110 "
b11111 "
b11110 !
b11110 (
0&
b0 +
b0 <
b10 +
b1 <
#75500
1$
1&
b0 +
b0 <
b100 +
b10 <
b10 ,
b11 -
b100 .
b101 /
b110 0
b111 1
b1000 2
b1001 3
b1010 4
b1011 5
b1100 6
b1101 7
b1110 8
b1111 9
b0 :
b1 ;
#75600
b10 *
b10 =
b10 )
b10 #
#76000
0$
b111110 "
b111111 "
b111110 !
b111110 (
0&
b0 +
b0 <
b100 +
b10 <
#76500
1$
1&
b0 +
b0 <
b1000 +
b11 <
b11 ,
b100 -
b101 .
b110 /
b111 0
b1000 1
b1001 2
b1010 3
b1011 4
b1100 5
b1101 6
b1110 7
b1111 8
b0 9
b1 :
b10 ;
#76600
b100 *
b100 =
b100 )
b100 #
#77000
0$
b1111110 "
b1111111 "
b1111110 !
b1111110 (
0&
b0 +
b0 <
b1000 +
b11 <
#77500
1$
1&
b0 +
b0 <
b100000 +
b101 <
b101 ,
b110 -
b111 .
b1000 /
b1001 0
b1010 1
b1011 2
b1100 3
b1101 4
b1110 5
b1111 6
b0 7
b1 8
b10 9
b11 :
b100 ;
#77600
b1000 *
b1000 =
b1000 )
b1000 #
#78000
0$
b11111110 "
b11111111 "
b11111110 !
b11111110 (
0&
b0 +
b0 <
b100000 +
b101 <
#78500
1$
1&
b0 +
b0 <
b10000000 +
b111 <
b111 ,
b1000 -
b1001 .
b1010 /
b1011 0
b1100 1
b1101 2
b1110 3
b1111 4
b0 5
b1 6
b10 7
b11 8
b100 9
b101 :
b110 ;
#78600
b100000 *
b0 =
b100000 )
b100000 #
#79000
0$
b111111110 "
b111111111 "
b111111110 !
b111111110 (
0&
b0 +
b0 <
b10000000 +
b111 <
#79500
1$
1&
b0 +
b0 <
b10 +
b1 <
b1001 ,
b1010 -
b1011 .
b1100 /
b1101 0
b1110 1
b1111 2
b0 3
b1 4
b10 5
b11 6
b100 7
b101 8
b110 9
b111 :
b1000 ;
#79600
b10000000 *
b10000000 )
b10000000 #
#80000
0$
b1111111110 "
b1111111111 "
b1111111110 !
b1111111110 (
0&
b0 +
b0 <
b1000000000 +
b1001 <
#80500
1$
1&
b0 +
b0 <
b10 +
b1 <
b1011 ,
b1100 -
b1101 .
b1110 /
b1111 0
b0 1
b1 2
b10 3
b11 4
b100 5
b101 6
b110 7
b111 8
b1000 9
b1001 :
b1010 ;
#80600
b1000000000 *
b1000000000 )
b1000000000 #
#81000
0$
b11111111110 "
b11111111111 "
b11111111110 !
b11111111110 (
0&
b0 +
b0 <
b10 +
b1 <
#81500
1$
1&
b0 +
b0 <
b100 +
b10 <
b10 ,
b11 -
b100 .
b101 /
b110 0
b111 1
b1000 2
b1001 3
b1010 4
b1011 5
b1100 6
b1101 7
b1110 8
b1111 9
b0 :
b1 ;
#81600
b10 *
b10 =
b10 )
b10 #
#82000
0$
b111111111110 "
b111111111111 "
b111111111110 !
b111111111110 (
0&
b0 +
b0 <
b100 +
b10 <
#82500
1$
1&
b0 +
b0 <
b1000 +
b11 <
b11 ,
b100 -
b101 .
b110 /
b111 0
b1000 1
b1001 2
b1010 3
b1011 4
b1100 5
b1101 6
b1110 7
b1111 8
b0 9
b1 :
b10 ;
#82600
b100 *
b100 =
b100 )
b100 #
#83000
0$
b1111111111110 "
b1111111111111 "
b1111111111110 !
b1111111111110 (
0&
b0 +
b0 <
b1000 +
b11 <
#83500
1$
1&
b0 +
b0 <
b100000 +
b101 <
b101 ,
b110 -
b111 .
b1000 /
b1001 0
b1010 1
b1011 2
b1100 3
b1101 4
b1110 5
b1111 6
b0 7
b1 8
b10 9
b11 :
b100 ;
#83600
b1000 *
b1000 =
b1000 )
b1000 #
#84000
0$
b11111111111110 "
b11111111111111 "
b11111111111110 !
b11111111111110 (
0&
b0 +
b0 <
b100000 +
b101 <
#84500
1$
1&
b0 +
b0 <
b10000000 +
b111 <
b111 ,
b1000 -
b1001 .
b1010 /
b1011 0
b1100 1
b1101 2
b1110 3
b1111 4
b0 5
b1 6
b10 7
b11 8
b100 9
b101 :
b110 ;
#84600
b100000 *
b0 =
b100000 )
b100000 #
#85000
0$
b111111111111110 "
b111111111111111 "
b111111111111110 !
b111111111111110 (
0&
b0 +
b0 <
b10000000 +
b111 <
#85500
1$
1&
b0 +
b0 <
b1000000000 +
b1001 <
b1001 ,
b1010 -
b1011 .
b1100 /
b1101 0
b1110 1
b1111 2
b0 3
b1 4
b10 5
b11 6
b100 7
b101 8
b110 9
b111 :
b1000 ;
#85600
b10000000 *
b10000000 )
b10000000 #
#86000
0$
b1111111111111110 "
b1111111111111111 "
b1111111111111110 !
b1111111111111110 (
0&
b0 +
b0 <
b1000000000 +
b1001 <
#86500
1$
1&
b0 +
b0 <
b100000000000 +
b1011 <
b1011 ,
b1100 -
b1101 .
b1110 /
b1111 0
b0 1
b1 2
b10 3
b11 4
b100 5
b101 6
b110 7
b111 8
b1000 9
b1001 :
b1010 ;
#86600
b1000000000 *
b1000000000 )
b1000000000 #
#87000
0$
b0 "
b1111111111111111 !
b1111111111111111 (
0&
b0 +
b0 <
b100000000000 +
b1011 <
#87500
1$
1&
b0 +
b0 <
b10000000000000 +
b1101 <
b1101 ,
b1110 -
b1111 .
b0 /
b1 0
b10 1
b11 2
b100 3
b101 4
b110 5
b111 6
b1000 7
b1001 8
b1010 9
b1011 :
b1100 ;
#87600
b100000000000 *
b100000000000 )
b100000000000 #
#88000
0$
b1 "
b0 !
b0 (
0&
b0 +
b0 <
#88500
1$
1&
#88600
b0 *
b0 )
b0 #
#89000
0$
b10 "
b11 "
b10 !
b10 (
0&
b10 +
b1 <
